{
	"development": {
		"username": "root",
		"password": "",
		"database": "graphql_dev",
		"host": "localhost",
		"dialect": "mysql"
	},
	"test": {
		"username": "root",
		"password": "",
		"database": "graphql_test",
		"host": "localhost",
		"dialect": "mysql",
		"logging": false
	},
	"production": {
		"username": "tiagopaza",
		"password": "3ULybDxI",
		"database": "graphql_prod",
		"host": "localhost",
		"dialect": "mysql"
	},
	"pipelines": {
		"username": "root",
		"password": "let_me_in",
		"database": "pipelines",
		"host": "localhost",
		"port": 3306,
		"dialect": "mysql",
		"logging": false
	}
}